%YAML 1.1
%TAG !u! tag:unity3d.com,2011:
--- !u!1001 &1398452047777526397
PrefabInstance:
  m_ObjectHideFlags: 0
  serializedVersion: 2
  m_Modification:
    m_TransformParent: {fileID: 0}
    m_Modifications:
    - target: {fileID: 9005596185361390080, guid: cc5c4467f8317c34ba3781763bc218ce,
        type: 3}
      propertyPath: m_Name
      value: CollectTest
      objectReference: {fileID: 0}
    - target: {fileID: 9005596185361390139, guid: cc5c4467f8317c34ba3781763bc218ce,
        type: 3}
      propertyPath: m_LocalPosition.x
      value: 174.01
      objectReference: {fileID: 0}
    - target: {fileID: 9005596185361390139, guid: cc5c4467f8317c34ba3781763bc218ce,
        type: 3}
      propertyPath: m_LocalPosition.y
      value: -43.26
      objectReference: {fileID: 0}
    - target: {fileID: 9005596185361390139, guid: cc5c4467f8317c34ba3781763bc218ce,
        type: 3}
      propertyPath: m_LocalPosition.z
      value: 50.3
      objectReference: {fileID: 0}
    - target: {fileID: 9005596185361390139, guid: cc5c4467f8317c34ba3781763bc218ce,
        type: 3}
      propertyPath: m_LocalRotation.x
      value: -0.0736832
      objectReference: {fileID: 0}
    - target: {fileID: 9005596185361390139, guid: cc5c4467f8317c34ba3781763bc218ce,
        type: 3}
      propertyPath: m_LocalRotation.y
      value: -0.24789885
      objectReference: {fileID: 0}
    - target: {fileID: 9005596185361390139, guid: cc5c4467f8317c34ba3781763bc218ce,
        type: 3}
      propertyPath: m_LocalRotation.z
      value: 0.12305615
      objectReference: {fileID: 0}
    - target: {fileID: 9005596185361390139, guid: cc5c4467f8317c34ba3781763bc218ce,
        type: 3}
      propertyPath: m_LocalRotation.w
      value: 0.9581097
      objectReference: {fileID: 0}
    - target: {fileID: 9005596185361390139, guid: cc5c4467f8317c34ba3781763bc218ce,
        type: 3}
      propertyPath: m_RootOrder
      value: 0
      objectReference: {fileID: 0}
    - target: {fileID: 9005596185361390139, guid: cc5c4467f8317c34ba3781763bc218ce,
        type: 3}
      propertyPath: m_LocalEulerAnglesHint.x
      value: 88.129005
      objectReference: {fileID: 0}
    - target: {fileID: 9005596185361390139, guid: cc5c4467f8317c34ba3781763bc218ce,
        type: 3}
      propertyPath: m_LocalEulerAnglesHint.y
      value: -90.00001
      objectReference: {fileID: 0}
    - target: {fileID: 9005596185361390139, guid: cc5c4467f8317c34ba3781763bc218ce,
        type: 3}
      propertyPath: m_LocalEulerAnglesHint.z
      value: -74.295006
      objectReference: {fileID: 0}
    - target: {fileID: 9005596185361390143, guid: cc5c4467f8317c34ba3781763bc218ce,
        type: 3}
      propertyPath: eggCounterText
      value: 
      objectReference: {fileID: 0}
    m_RemovedComponents: []
  m_SourcePrefab: {fileID: 100100000, guid: cc5c4467f8317c34ba3781763bc218ce, type: 3}
